[
  {
    "_id": "5d725a4a7b292f5f8ceff781",
    "title": "How to do X",
    "text": "Step 1: Do Y first, then X",
    "tag": "Tutorial",
    "collective": "602f261685126a0ba0d3f8cc",
    "user": "5d7a514b5d2c12c7449be041"
  }
]
