[
  {
    "_id": "5fdcd7e91c4e0c7ea7ab47ac",
    "title": "src",
    "withPost": false,
    "description": "A quick example of how to do something",
    "post": "5d725a4a7b292f5f8ceff781",
    "user": "5d7a514b5d2c12c7449be041",
    "id": "5fdcd7e91c4e0c7ea7ab47ac"
  }
]