[
  {
    "_id": "5d7a514b5d2c12c7449be041",
    "username": "one",
    "email": "one@gmail.com",
    "role": "user",
    "password": "123456"
  },
  {
    "_id": "5d7a514b5d2c12c7449be042",
    "username": "two",
    "email": "two@gmail.com",
    "role": "user",
    "password": "123456"
  },
  {
    "_id": "5d7a514b5d2c12c7449be043",
    "username": "three",
    "email": "three@gmail.com",
    "role": "user",
    "password": "123456"
  },
  {
    "_id": "5d7a514b5d2c12c7449be044",
    "username": "four",
    "email": "four@gmail.com",
    "role": "user",
    "password": "123456"
  },
  {
    "_id": "5d7a514b5d2c12c7449be045",
    "username": "five",
    "email": "five@gmail.com",
    "role": "user",
    "password": "123456"
  }
]
