{
    "type": "service_account",
    "project_id": "quick-geography-334200",
    "private_key_id": "b35d97a456e32e8c54ecf96d80909b37da647486",
    "private_key": "-----BEGIN PRIVATE KEY-----\nMIIEvgIBADANBgkqhkiG9w0BAQEFAASCBKgwggSkAgEAAoIBAQC7l0Mh+pEZxf54\nDrlbH0v9dXz8CSxwVc4hJxRt7uLSBqYmIEjqKr1SEyx238m3R6+oudQqA2xFEQwk\n3ouTx9PVC9z9Sj15nJpJw5G3vbC5rXoMV6hQhBNKcjWhQw9l6HvBie25WStln+Nf\n689nMAGyrmei0T2fav+cN+msdulDB9ytH0UcufZerpz49G041ShHDHS7NbuU3K6W\nYRfWvKnNKacnyhRpy1HvQ6WAsLx+NmM7zuxAzUjqnalkFlsnlWlSlI673gqEwUvX\nQrMMtpiescZlo5YL7z6d4qRgu6WElXvgcBFYa8rbUSn4FZbYjTuEEF3le0qBgvC9\nzmMKz6AzAgMBAAECggEAEht5uW/sTaaU95XEQo100lRi6hkglv9RVFXnXO0wK8HE\ni+2V3DSf7ao4IolbeTuMMycs2ZlW/Bu3Jl/s7Sjew7PPcwuVf4WkRvZ/vFKtGl8q\nZsKXVp5JFmiL0LMea2HTgE0GC1wWGksisYGblYRGxa6cBlVYM2kqnzOudJ1NytBu\n4PMZi/bg1NMrxhUdnTVuK+fo7Z9AUFuyZglUFDqaLD55xSnmDgrdiDf6qRzxYZDd\nV1jhh/tETZoY47oYdLNBniS9TveuCvHiKUeDU8ukRYYCCZ/qd7B9DKgSmPLL2Ul0\nUE0iZ9DdHwt0aJcWcHOBJXRQquALiGBR3A2tSVj1AQKBgQD1xqFriQHbItpL3oZM\nJ+WM91smzitLbIJvJM2Fwf234ZiCzFyRY+xXge4o6UjcrgW5WZcW6um3c4NgL7rx\nWVwAkv6lfPh9p+/V46TGIQpg61qpo3xGgU/2Sn1vgWd7MDpdz58tRafI/P0p4+Qn\nM1Iwkhh1rTn9CG37b6qxxn5+8wKBgQDDZP7Ctcakg0usRGZfIXxMWES8V2IYHYG2\nwPxMAi8bFQ+QLaGqhaGlZo4bLnKzHbd3SkrmDeeafrHHJdRnq0WJY8o3w+pI2ehS\nIYVL4uR3G2mVXh5nbvwBTHhrI5ULKnWZgLEN9aiIOcMltlP0PKnw7Q2XzWQWqZGC\nR8Ol+a8pwQKBgQCoYDYCF9CfshbfV0mmLscCdguKYEAk4efSAOKUOjx5lyIGqb7Z\nFB28LZVdjcSO+uGNA6WQ28rWFVrxsIFgCxoOgqXV9fG/FCgo3lXqLoSPtW1dPlVL\ncBe54Xphw8ODD51M24pvV4MFHNzLsAaEHJK4F76OD+jkQrwmP3Avbo8GpQKBgHMr\ng3J3PIfZj/ARPRoTnbVOTe2JwBsgwUVcSRnwK53V8x9zlhfxvk7EvTxOS3NCL9LT\naoRha8NHrDgLF0Cn1kveEuJ9ywl3z5UhhvUs3qdJ9BkDqf4jj8ygK1ZTWdWECF8b\nWME2rEjnaxw+dQu/+hc1Us7IVJd7CXZ2IF8jZdjBAoGBAMlAb2uxR4BTvchqj8jf\nlXPcCHwU3Rue87eBL19//R9za2e7k6v+AJ6daZ+4AvSFy8OhZCJ/39D9PlWQvHbF\nJXK+kV7fOetg7/uj2fF7h3T/orkrIZcC7La79hvvGZHuXSqCjXXCUiz3FDQSXRvq\nBpX/5UJFvHlIJUtJWCbkiwR7\n-----END PRIVATE KEY-----\n",
    "client_email": "omnicollective@quick-geography-334200.iam.gserviceaccount.com",
    "client_id": "111122358634658296481",
    "auth_uri": "https://accounts.google.com/o/oauth2/auth",
    "token_uri": "https://oauth2.googleapis.com/token",
    "auth_provider_x509_cert_url": "https://www.googleapis.com/oauth2/v1/certs",
    "client_x509_cert_url": "https://www.googleapis.com/robot/v1/metadata/x509/omnicollective%40quick-geography-334200.iam.gserviceaccount.com"
   }
   